%YAML 1.1
%TAG !u! tag:unity3d.com,2011:
--- !u!1 &6311289124022375984
GameObject:
  m_ObjectHideFlags: 0
  m_CorrespondingSourceObject: {fileID: 0}
  m_PrefabInstance: {fileID: 0}
  m_PrefabAsset: {fileID: 0}
  serializedVersion: 6
  m_Component:
  - component: {fileID: 9401630744646554}
  - component: {fileID: 6828229722397634943}
  - component: {fileID: 7440537382063102642}
  - component: {fileID: -7103033797458344508}
  - component: {fileID: 6887475163635433872}
  - component: {fileID: 2448762024063930098}
  - component: {fileID: -1785608894816655975}
  - component: {fileID: -563037006232472217}
  m_Layer: 0
  m_Name: dragon_egg
  m_TagString: Egg
  m_Icon: {fileID: 0}
  m_NavMeshLayer: 0
  m_StaticEditorFlags: 0
  m_IsActive: 1
--- !u!224 &9401630744646554
RectTransform:
  m_ObjectHideFlags: 0
  m_CorrespondingSourceObject: {fileID: 0}
  m_PrefabInstance: {fileID: 0}
  m_PrefabAsset: {fileID: 0}
  m_GameObject: {fileID: 6311289124022375984}
  m_LocalRotation: {x: 0, y: 0, z: 0, w: 1}
  m_LocalPosition: {x: 0, y: 0, z: 0}
  m_LocalScale: {x: 0.27610755, y: 0.27610755, z: 0.27610755}
  m_Children:
  - {fileID: 1968003953924089184}
  m_Father: {fileID: 0}
  m_RootOrder: 0
  m_LocalEulerAnglesHint: {x: 0, y: 0, z: 0}
  m_AnchorMin: {x: 0.5, y: 0.5}
  m_AnchorMax: {x: 0.5, y: 0.5}
  m_AnchoredPosition: {x: 0.021, y: 0}
  m_SizeDelta: {x: 0.3, y: 0.32}
  m_Pivot: {x: 0.5, y: 0.5}
--- !u!212 &6828229722397634943
SpriteRenderer:
  m_ObjectHideFlags: 0
  m_CorrespondingSourceObject: {fileID: 0}
  m_PrefabInstance: {fileID: 0}
  m_PrefabAsset: {fileID: 0}
  m_GameObject: {fileID: 6311289124022375984}
  m_Enabled: 1
  m_CastShadows: 0
  m_ReceiveShadows: 0
  m_DynamicOccludee: 1
  m_MotionVectors: 1
  m_LightProbeUsage: 1
  m_ReflectionProbeUsage: 1
  m_RenderingLayerMask: 1
  m_RendererPriority: 0
  m_Materials:
  - {fileID: 10754, guid: 0000000000000000f000000000000000, type: 0}
  m_StaticBatchInfo:
    firstSubMesh: 0
    subMeshCount: 0
  m_StaticBatchRoot: {fileID: 0}
  m_ProbeAnchor: {fileID: 0}
  m_LightProbeVolumeOverride: {fileID: 0}
  m_ScaleInLightmap: 1
  m_ReceiveGI: 1
  m_PreserveUVs: 0
  m_IgnoreNormalsForChartDetection: 0
  m_ImportantGI: 0
  m_StitchLightmapSeams: 1
  m_SelectedEditorRenderState: 0
  m_MinimumChartSize: 4
  m_AutoUVMaxDistance: 0.5
  m_AutoUVMaxAngle: 89
  m_LightmapParameters: {fileID: 0}
  m_SortingLayerID: 0
  m_SortingLayer: 0
  m_SortingOrder: 1
  m_Sprite: {fileID: 21300000, guid: f9c98c8a25d027b49af25a2225bd9c7a, type: 3}
  m_Color: {r: 1, g: 1, b: 1, a: 1}
  m_FlipX: 0
  m_FlipY: 0
  m_DrawMode: 0
  m_Size: {x: 0.3, y: 0.32}
  m_AdaptiveModeThreshold: 0.5
  m_SpriteTileMode: 0
  m_WasSpriteAssigned: 1
  m_MaskInteraction: 0
  m_SpriteSortPoint: 0
--- !u!95 &7440537382063102642
Animator:
  serializedVersion: 3
  m_ObjectHideFlags: 0
  m_CorrespondingSourceObject: {fileID: 0}
  m_PrefabInstance: {fileID: 0}
  m_PrefabAsset: {fileID: 0}
  m_GameObject: {fileID: 6311289124022375984}
  m_Enabled: 1
  m_Avatar: {fileID: 0}
  m_Controller: {fileID: 9100000, guid: 691bf4909fc22f143bb0be183b27847b, type: 2}
  m_CullingMode: 0
  m_UpdateMode: 0
  m_ApplyRootMotion: 0
  m_LinearVelocityBlending: 0
  m_WarningMessage: 
  m_HasTransformHierarchy: 1
  m_AllowConstantClipSamplingOptimization: 1
  m_KeepAnimatorControllerStateOnDisable: 0
--- !u!114 &-7103033797458344508
MonoBehaviour:
  m_ObjectHideFlags: 0
  m_CorrespondingSourceObject: {fileID: 0}
  m_PrefabInstance: {fileID: 0}
  m_PrefabAsset: {fileID: 0}
  m_GameObject: {fileID: 6311289124022375984}
  m_Enabled: 1
  m_EditorHideFlags: 0
  m_Script: {fileID: 11500000, guid: 857262c20ff59b84a96accd21cd07365, type: 3}
  m_Name: 
  m_EditorClassIdentifier: 
  item: 18
--- !u!61 &6887475163635433872
BoxCollider2D:
  m_ObjectHideFlags: 0
  m_CorrespondingSourceObject: {fileID: 0}
  m_PrefabInstance: {fileID: 0}
  m_PrefabAsset: {fileID: 0}
  m_GameObject: {fileID: 6311289124022375984}
  m_Enabled: 1
  m_Density: 1
  m_Material: {fileID: 0}
  m_IsTrigger: 0
  m_UsedByEffector: 0
  m_UsedByComposite: 0
  m_Offset: {x: 0, y: 0}
  m_SpriteTilingProperty:
    border: {x: 0, y: 0, z: 0, w: 0}
    pivot: {x: 0.5, y: 0.5}
    oldSize: {x: 0.3, y: 0.32}
    newSize: {x: 0.3, y: 0.32}
    adaptiveTilingThreshold: 0.5
    drawMode: 0
    adaptiveTiling: 0
  m_AutoTiling: 0
  serializedVersion: 2
  m_Size: {x: 0.3, y: 0.32}
  m_EdgeRadius: 0
--- !u!114 &2448762024063930098
MonoBehaviour:
  m_ObjectHideFlags: 0
  m_CorrespondingSourceObject: {fileID: 0}
  m_PrefabInstance: {fileID: 0}
  m_PrefabAsset: {fileID: 0}
  m_GameObject: {fileID: 6311289124022375984}
  m_Enabled: 1
  m_EditorHideFlags: 0
  m_Script: {fileID: 11500000, guid: 2df1060d9395e854b896158d184cf204, type: 3}
  m_Name: 
  m_EditorClassIdentifier: 
  highlightCanvas: {fileID: 0}
  thisGameObject: {fileID: 0}
--- !u!114 &-1785608894816655975
MonoBehaviour:
  m_ObjectHideFlags: 0
  m_CorrespondingSourceObject: {fileID: 0}
  m_PrefabInstance: {fileID: 0}
  m_PrefabAsset: {fileID: 0}
  m_GameObject: {fileID: 6311289124022375984}
  m_Enabled: 1
  m_EditorHideFlags: 0
  m_Script: {fileID: 11500000, guid: eb2c301a4f0083a41860714573743706, type: 3}
  m_Name: 
  m_EditorClassIdentifier: 
  infoBubblePrefab: {fileID: 2303282423998673548, guid: 73471fff6a0ac64408609de83deba2ca,
    type: 3}
  info: {fileID: 0}
  goDraggedObject: {fileID: 0}
  rbDraggedObject: {fileID: 0}
  lastMousePos: {x: 0, y: 0, z: 0}
  mouseVelocity: {x: 0, y: 0, z: 0}
  isWhackAMoleTime: 0
  thisGameObject: {fileID: 0}
--- !u!50 &-563037006232472217
Rigidbody2D:
  serializedVersion: 4
  m_ObjectHideFlags: 0
  m_CorrespondingSourceObject: {fileID: 0}
  m_PrefabInstance: {fileID: 0}
  m_PrefabAsset: {fileID: 0}
  m_GameObject: {fileID: 6311289124022375984}
  m_BodyType: 0
  m_Simulated: 1
  m_UseFullKinematicContacts: 0
  m_UseAutoMass: 0
  m_Mass: 1
  m_LinearDrag: 0
  m_AngularDrag: 0.05
  m_GravityScale: 1
  m_Material: {fileID: 0}
  m_Interpolate: 0
  m_SleepingMode: 1
  m_CollisionDetection: 0
  m_Constraints: 7
--- !u!1001 &3696059761601650113
PrefabInstance:
  m_ObjectHideFlags: 0
  serializedVersion: 2
  m_Modification:
    m_TransformParent: {fileID: 9401630744646554}
    m_Modifications:
    - target: {fileID: 5629103960413985090, guid: 889c392e3ea698541bb8e3125f51eebc,
        type: 3}
      propertyPath: m_Name
      value: HighlightCanvas
      objectReference: {fileID: 0}
    - target: {fileID: 2883653884634740897, guid: 889c392e3ea698541bb8e3125f51eebc,
        type: 3}
      propertyPath: m_LocalPosition.x
      value: 0
      objectReference: {fileID: 0}
    - target: {fileID: 2883653884634740897, guid: 889c392e3ea698541bb8e3125f51eebc,
        type: 3}
      propertyPath: m_LocalPosition.y
      value: 0
      objectReference: {fileID: 0}
    - target: {fileID: 2883653884634740897, guid: 889c392e3ea698541bb8e3125f51eebc,
        type: 3}
      propertyPath: m_LocalPosition.z
      value: 0
      objectReference: {fileID: 0}
    - target: {fileID: 2883653884634740897, guid: 889c392e3ea698541bb8e3125f51eebc,
        type: 3}
      propertyPath: m_LocalRotation.x
      value: -0
      objectReference: {fileID: 0}
    - target: {fileID: 2883653884634740897, guid: 889c392e3ea698541bb8e3125f51eebc,
        type: 3}
      propertyPath: m_LocalRotation.y
      value: -0
      objectReference: {fileID: 0}
    - target: {fileID: 2883653884634740897, guid: 889c392e3ea698541bb8e3125f51eebc,
        type: 3}
      propertyPath: m_LocalRotation.z
      value: -0
      objectReference: {fileID: 0}
    - target: {fileID: 2883653884634740897, guid: 889c392e3ea698541bb8e3125f51eebc,
        type: 3}
      propertyPath: m_LocalRotation.w
      value: 1
      objectReference: {fileID: 0}
    - target: {fileID: 2883653884634740897, guid: 889c392e3ea698541bb8e3125f51eebc,
        type: 3}
      propertyPath: m_RootOrder
      value: 0
      objectReference: {fileID: 0}
    - target: {fileID: 2883653884634740897, guid: 889c392e3ea698541bb8e3125f51eebc,
        type: 3}
      propertyPath: m_LocalEulerAnglesHint.x
      value: 0
      objectReference: {fileID: 0}
    - target: {fileID: 2883653884634740897, guid: 889c392e3ea698541bb8e3125f51eebc,
        type: 3}
      propertyPath: m_LocalEulerAnglesHint.y
      value: 0
      objectReference: {fileID: 0}
    - target: {fileID: 2883653884634740897, guid: 889c392e3ea698541bb8e3125f51eebc,
        type: 3}
      propertyPath: m_LocalEulerAnglesHint.z
      value: 0
      objectReference: {fileID: 0}
    - target: {fileID: 2883653884634740897, guid: 889c392e3ea698541bb8e3125f51eebc,
        type: 3}
      propertyPath: m_AnchoredPosition.x
      value: 0.0000076293945
      objectReference: {fileID: 0}
    - target: {fileID: 2883653884634740897, guid: 889c392e3ea698541bb8e3125f51eebc,
        type: 3}
      propertyPath: m_AnchoredPosition.y
      value: 0
      objectReference: {fileID: 0}
    - target: {fileID: 2883653884634740897, guid: 889c392e3ea698541bb8e3125f51eebc,
        type: 3}
      propertyPath: m_SizeDelta.x
      value: 0
      objectReference: {fileID: 0}
    - target: {fileID: 2883653884634740897, guid: 889c392e3ea698541bb8e3125f51eebc,
        type: 3}
      propertyPath: m_SizeDelta.y
      value: 0
      objectReference: {fileID: 0}
    - target: {fileID: 2883653884634740897, guid: 889c392e3ea698541bb8e3125f51eebc,
        type: 3}
      propertyPath: m_AnchorMin.x
      value: 0
      objectReference: {fileID: 0}
    - target: {fileID: 2883653884634740897, guid: 889c392e3ea698541bb8e3125f51eebc,
        type: 3}
      propertyPath: m_AnchorMin.y
      value: 0
      objectReference: {fileID: 0}
    - target: {fileID: 2883653884634740897, guid: 889c392e3ea698541bb8e3125f51eebc,
        type: 3}
      propertyPath: m_AnchorMax.x
      value: 1
      objectReference: {fileID: 0}
    - target: {fileID: 2883653884634740897, guid: 889c392e3ea698541bb8e3125f51eebc,
        type: 3}
      propertyPath: m_AnchorMax.y
      value: 1
      objectReference: {fileID: 0}
    - target: {fileID: 2883653884634740897, guid: 889c392e3ea698541bb8e3125f51eebc,
        type: 3}
      propertyPath: m_Pivot.x
      value: 0.5
      objectReference: {fileID: 0}
    - target: {fileID: 2883653884634740897, guid: 889c392e3ea698541bb8e3125f51eebc,
        type: 3}
      propertyPath: m_Pivot.y
      value: 0.5
      objectReference: {fileID: 0}
    m_RemovedComponents: []
  m_SourcePrefab: {fileID: 100100000, guid: 889c392e3ea698541bb8e3125f51eebc, type: 3}
--- !u!224 &1968003953924089184 stripped
RectTransform:
  m_CorrespondingSourceObject: {fileID: 2883653884634740897, guid: 889c392e3ea698541bb8e3125f51eebc,
    type: 3}
  m_PrefabInstance: {fileID: 3696059761601650113}
  m_PrefabAsset: {fileID: 0}
